{
  "Channel Selection": "Channel selection",
  "Choose the channel you want to use.": "Select the channel you want to use.",
  "Channel description": "We recommend the **stable** channel, which will give you the most reliable Recalbox experience.\nSelect the **beta** channel if you want to test the latest features — we can't guarantee stability.",
  "Channel": "Channel",
  "Category": "Category",
  "Board": "Board",
  "Install": "Installation",
  "Play!": "Play!",
  "Release Notes for Recalbox": "Release Notes for Recalbox {{version}}",
  "All images": "See all images",
  "All images for Recalbox": "All images for Recalbox {{version}}",
  "Category Selection": "Category selection",
  "What are you installing Recalbox on?": "What are you installing Recalbox on?",
  "Board Selection": "Board selection",
  "What model is your": "What is your {{category}} model?",
  "Handheld": "Handheld",
  "Installation": "Installation for {{board}}",
  "Let's download": "Let's download and install Recalbox on your {{board}}",
  "Rasberry Pi Imager Description": "Raspberry Pi Imager allows you to automatically download and install Recalbox on your microSD card. It is compatible with Windows, macOS, and Linux.",
  "Step1": "Download and install Raspberry Pi Imager.",
  "Step2": "Click on **CHOOSE OS** and select **Recalbox** from the **Emulation and game OS** category.",
  "Step2Alternative": "Download the image for {{board}}",
  "Step3": "Select **Recalbox - {{board}}**",
  "Step3Alternative": "Click on **CHOOSE OS** and select **Use Custom Image** from the options.",
  "Step4": "Click on **CHOOSE STORAGE** and select your microSD card, then click on **WRITE**",
  "Step5": "That's it! Your Recalbox is ready. Plug it in, sit back, and... have fun!",
  "Download Recalbox for": "Download Recalbox for {{board}}",
  "Alternative image": "Alternative: Install a downloaded image",
  "Thank you!": "Thank you for installing Recalbox!",
  "Thank you for your subscription!": "Thank you for your registration!",
  "An error occured while saving your email": "An error occurred during registration.",
  "And then ? Follow us": "What's next? Follow us on [facebook](https://facebook.com/recalbox), [instagram](https://instagram.com/recalbox) and [twitter](https://twitter.com/recalbox), and sign up for our newsletter to receive news, tips and tutorials in advance!",
  "Subscribe to the newsletter": "Subscribe to the newsletter.",
  "Systems and blog": "You can check the [list of compatible systems]({{systemslink}}) or visit the [blog]({{bloglink}}).",
  "Download and install Recalbox for your Rasbperry Pi, PC, Handheld and Odroid!": "Download and install Recalbox on your Raspberry Pi, PC, handheld console or ODROID!",
  "Download and install Recalbox for your": "Download and install Recalbox on your {{category}}",
  "Download": "Download",
  "Next: play": "Next: play",
  "Stable Channel": "The recommended version of Recalbox.",
  "Beta Channel": "Want to test the latest features before the official release?",
  "Unstable Channel": "Test the future features of Recalbox!"
}