{
  "Patron Features": "- Be part of the future of Recalbox!\n- Premium Features!\n- Auto-Scrap !\n- Exclusive retrogaming playlist ! Vote and decide on the features of tomorrow !\n- Get access to the latest releases before anyone else.\n- Benefit from exclusive discounts at our partners",
  "Become a patron": "Become a patron",
  "on your patron area": "- Generate your **Private Key**, which will allow you to access all the features on your Recalbox.\n- Download Recalbox **Patron Edition**.\n- Access your **benefits** (discounts...)",
  "part1-1": "In order to allow the team to devote 100% of their time to accelerate the development of the project, Recalbox is now offering a participatory support campaign, via the PATREON platform.\nA solution that will allow Recalbox users to simply become... **our patrons**!",
  "part1-2": "Becoming a \"Patron\" of Recalbox means supporting and participating in the life of the project, decide the future of Recalbox, take part in key decisions and even determine with the team the the next key features of the new versions.\nIn short, becoming a \"Patron\" means making Recalbox **YOUR project**.",
  "part1-3": "Becoming a patron also means enjoying a preview of the fruits of this work through through new avant-garde functionalities with many exclusive advantages. And of course, all the features that the Patrons will have chosen and that they will have discovered discovered as a preview are intended to be accessible to all Recalbox users in subsequent subsequent versions.\n\nA project driven BY its community. FOR its community. A win-win situation!",
  "part2-1": "By becoming the owner of Recalbox, you will be able to say goodbye to the endless hours of scraping to get the info, images and video of each of your games, by discovering our first premium feature: AUTO-SCRAP!\n\nWith AUTO-SCRAP, add your games, your Recalbox takes care of the rest.\n\nWithout any action from you. SO COOL!",
  "part3-1" : "Recalbox's patrons will enjoy a preview of a playlist of music including remixes, covers, demakes, ultra-qualitative chiptunes the great video game music of the last 40 years, created by the most popular retro by the most fashionable retro producers of the moment.",
  "part4-1" : "At Recalbox, we listen to our Patrons! \nThey will be at the heart of our next development strategy, with the opportunity to:\n\n- Participate in strategic project decisions\n- Vote for future Recalbox features\n- Chat live with Recalbox developers, with a dedicated discord channel, VIP support and even a free hotline, like in the great days of S.O.S. Nintendo!\n- Participate in Apéros and VIP events, in the presence of the Recalbox team",
  "part5-1": "At Recalbox, a Boss is pampered.\n\nThat's why we have negotiated the best retrogaming plans for them, with discounts on...\n\n- equipment to make your Recalbox\n- retrogaming / indie / homebrew video games\n- neo-retro video games\n- retrogaming & nostal'geek books\n- vinyls of retro video game music\n- arcade terminals\n\n... and this is only the beginning !",
  "part6-1": "Recalbox is and will remain FREE and OPEN SOURCE FOR ALL.\nThe premium features that the patrons will have voted for and enjoyed in advance are intended to be included for all in future versions of Recalbox.\n\nWith Patreon, Recalbox becomes a project driven BY its community. FOR its community.\n\nA win-win situation!",
  "Not a patron anymore": "Unfortunately, you are no longer a Recalbox patron. Please sign up for a subscription on Patreon to access your Patron space.",
  "Almost a Patron": "You are one step closer to becoming a Patron!",
  "Almost a Patron of Recalbox": "You are one step closer to becoming a Patron of Recalbox!",
  "Patreon link created": "The link to your Patreon account has been created!\n\nAll you have to do is support us on our Patreon page by selecting the subscription level that best suits you!",
  "Discount presentation": "At Recalbox, a Patron is a person who is pampered! \n\nThat's why we have negotiated the best deals 100% retrogaming, with exclusive discounts at...",
  "Reconnect to generate": "Your private key will be deleted. You will be disconnected from the boss space, you will have to log in to generate a new key.",
  "Steps to save the private key": "To register your private key in Recalbox: \n* turn on your Recalbox connected to the same network as your computer\n* click the **copy** button above to copy the key\n* click on the **OPEN WEB MANAGER** button below\n* paste the key into the box and click **Save** in this new window",
"This Mixtape will be played automatically on your Recalbox when you navigate through the menus!": "This Mixtape will be played automatically on your Recalbox when you navigate through the menus!",
  "Download Patron Edition for features" : "With the links below, download the special version of Recalbox to access all the premium features in preview!",
"Or update your current version!": "You can also update your Recalbox automatically: by adding the private key in your Recalbox (stable or patron version), the system will automatically detect that you are a patron. If an update is available, it will be proposed to you automatically."
}
