{
  "Supported systems": "Sistemi supportati",
  "All supported systems": "Scopri tutti i sistemi compatibili con Recalbox!",
  "A long time ago": "Molti anni fa...",
  "XX years ago": "{{date}} anni fa..."
}