{
  "Discover": "Scopri",
  "Experience": "Scegli la tua esperienza",
  "Hardware": "Hardware",
  "Installation": "Installazione",
  "DIY Step 1": "Fai Da Te - Passo 1: Scoprire Recalbox",
  "We are going to help you throught 4 steps": "Ti guideremo attraverso i **4 passaggi** che ti permetteranno di iniziare a giocare!",
  "Step 1: What is Recalbox?": "Passo 1, che cos'è Recalbox?",
  "It's the next gen console of retrogaming!": "È la console di retrogaming di ultima generazione!",
  "Recalbox de salon": "Recalbox sulla TV",
  "hardware for tv": "* Un Raspberry Pi 4 o Zero 2\n* Una custodia per Raspberry Pi 4 o Zero 2\n* Una scheda micro SD da 16 GB o più\n* Un cavo micro HDMI\n* Un controller USB / Bluetooth\n* Un alimentatore ufficiale Raspberry Pi 4 o Zero 2\n* Opzionale: una chiave USB per memorizzare facilmente i videogiochi\n* Opzionale: un interruttore USB-C per il tuo alimentatore",
  "NEXT GEN": "NEXT GEN",
  "Play online": "Gioca online, salva quando vuoi, torna indietro...",
  "+100 systems": "Più di 100 sistemi",
  "Play again to 100": "Gioca a migliaia di videogiochi su più di 100 sistemi",
  "DIY or Ready To Play": "Fai Da Te oppure pronto per giocare",
  "Assemble your recalbox or get a ready to play kit": "Costruisci il tuo Recabox, oppure acquista un kit pronto per l'uso.",
  "Free": "Gratuito",
  "Recalbox is free": "Recalbox è un software completamente gratuito. Scarica, installa e gioca!",
  "Step 2: Select your experience": "Passo 2: Scegli la tua esperienza",
  "TV": "TV",
  "Recalbox in your living room": "Recalbox nel tuo salotto.",
  "Recalbox on your PC": "Recalbox sul tuo PC.",
  "Handheld": "Portatile",
  "Recalbox everywhere!": "Recalbox ovunque!",
  "DIY Step 2": "Fai Da Te - Passo 2: Scegli la tua esperienza",
  "Either TV, PC or handheld?": "TV, PC o console portatile?",
  "Step 2: Choose your experience": "Passo 2: Scegli la tua esperienza",
  "DIY Step 3 TV": "Fai Da Te - Passo 3: L'hardware per Recalbox",
  "Living room it will be!": "Proseguiamo con Recalbox sulla tua TV!",
  "Step 3 : The Hardware": "Passo 3: Hardware",
  "You can now assemble your Recalbox!": "Tutto quel che devi fare ora è assemblare il tuo Recalbox!",
  "Assemble": "Assembla",
  "Step 4: Installation": "Passo 4: Installazione",
  "DIY Step 4": "Fai Da Te - Passo 4: Installazione",
  "You hardware is assembled, let's install Recalbox": "Il tuo hardware è ora assemblato, installiamo Recalbox",
  "How to install": "Per installare Recalbox sul tuo hardware, niente di più semplice:\n\n\n- Inserisci la microSD nel lettore del tuo computer\n- Vai su {{link}}, e segui le istruzioni per scaricare e installare Recalbox",
  "Only a few minutes": "I pochi passo per l'installazione richiedono solo qualche minuto.",
  "The installation": "L'installazione",
  "Back to homepage": "Torna alla homepage",
  "Kit Recalbox Mini": "Il kit ideal per creare la tua retro console ad un piccolo prezzo!",
  "Kit Recalbox Mini+": "Crea la tua console Recalbox in miniatura, con un controller USB SNES30 Pro!",
  "Get the pack!": "Prendi il pacchetto!",
  "Get it at kubii": "Il modo migliore per costruire il tuo Recalbox è ordinare un pacchetto presso il nostro partner kubii.fr",
  "Or do it yourself.": "Oppure crealo da solo.",
  "You will need the hardware": "Avrai bisogno di questo hardware:",
  "Missing anything, check kubii": "Manca qualcosa? Tutti i componenti sono disponibili presso il nostro partner kubii.fr",
  "Recalbox Shop at kubii": "Negozio Recalbox presso kubii.com",
  "DIY Step 3 PC": "Fai Da Te - Passo 3: Requisiti Recalbox su PC",
  "Use the power of your PC to run Recalbox!": "Sfrutta la potenza del tuo PC per Recalbox!",
  "You just need a PC!": "Hai solo bisogno di un PC...",
  "Recalbox on 64bits": "Recalbox funziona su quasi tutti i computer a 64bit. La maggior parte dei computer (vecchi e nuovi) sono a 64bit.",
  "Minimal Requirement": "Requisti **minimi**:\n* Una CPU a 64bit\n* 8GB di RAM\n* Una scheda video Intel, Nvidia o Amd\n* 10GB di spazio su disco\n* 8GB di spazio su disco esterno",
  "See PC on the wiki": "Controlla [i computer compatibili sulla wiki](https://wiki.recalbox.com/en/hardware-compatibility/compatible-pcs) per più informazioni",
  "DIY Step 3 Handheld": "Fai Da Te - Passo 3: L'hardware per un Recalbox portatile",
  "Step 3 : Compatible Handhelds": "Passo 3: Console Portatili Compatibili",
  "Get your recalbox everywhere": "Porta il tuo Recalbox ovunque tu vuoi!",
  "Compatible Handhelds": "Console Portatili Compatibili",
  "Odroid Go Advance": "L'Odroid Go Advance è una console portatile che puoi assemblare da solo. Potente e compatta.",
  "Odroid Go Super": "L'Odroid Go Super è il fratello maggiore dell'Advance. Stessa potenza, ma più rifinito e schermo più grande.",
  "GPi Case + Raspberry Pi Zero 2": "La potenza del Raspberry Pi Zero 2 nel tuo GPi Case",
  "GPi Case": "Recalbox in un Game Boy!",
  "PiBoy DMG": "Installa un Raspberry Pi 4 nella tua console portatile!",
  "Choose your handheld!": "Scegli la tua console portatile!",
  "Get handhelds at kubii": "Recalbox è compatibile con le seguenti console portatili. Se già ne possiedi una, [puoi andare al prossimo passo]({{link}}). Altrimenti, scegli il nostro partner kubii.fr per acquistare la tua console.",
  "Download Recalbox": "Scarica Recalbox",
  "What is Recalbox?": "Recalbox è ***La Console di Retrogaming Definitiva*** che ti permette di rivivere tutti i videogiochi, console e computer della tua infanzia!\n\nCon Recalbox (ri)scopri e (ri)gioca a titoli che hanno segnato la storia dei videogiochi, con facilità!"
}
