{
  "Channel Selection": "Seleziona canale",
  "Choose the channel you want to use.": "Selezione il canale che vuoi usare.",
  "Channel description": "Ti consigliamo il canale **stable**, che ti permette di avere un'esperienza più sicura con Recalbox.\nSelezionia il canale **beta** se preferisci testare gli ultimi aggiornamenti, senza garanzie di stabilità.",
  "Channel": "Canale",
  "Category": "Categoria",
  "Board": "Piattaforma",
  "Install": "Installazione",
  "Play!": "Gioca!",
  "Category Selection": "Selezione categoria",
  "What are you installing Recalbox on?": "Dove vuoi installare Recalbox?",
  "Board Selection": "Seleziona piattaforma",
  "What model is your": "Che modello di {{category}}?",
  "Handheld": "Portatile",
  "Installation": "Installazione per {{board}}",
  "Let's download": "Scarica ed installa Recalbox per {{board}}",
  "Rasberry Pi Imager Description": "Raspberry Pi Imager permette di scaricare e installare Recalbox automaticamente sulla tua scheda microSD. È compatibile con Windows, macOS e Linux.",
  "Step1": "Scarica e installa Raspberry Pi Imager.",
  "Step2": "Clicca su **CHOOSE OS** e seleziona **Recalbox** dalla categoria **Emulation and game OS**.",
  "Step2Alternative": "Scarica l'immagine per {{board}}",
  "Step3": "Seleziona **Recalbox - {{board}}**",
  "Step3Alternative": "Clicca su **CHOOSE OK** e seleziona **Use Custom Image** dalle opzioni.",
  "Step4": "Clicca su **CHOOSE STORAGE** e seleziona la tua scheda microSD, poi clicca su **WRITE**",
  "Step5": "Detto fatto! Il tuo Recalbox è pronto! Connetti, rilassati e... divertiti!",
  "Download Recalbox for": "Scarica Recalbox per {{board}}",
  "Alternative image": "Alternativa: Installa un'immagine scaricata",
  "Thank you!": "Grazie per aver installato Recalbox!",
  "Thank you for your subscription!": "Grazie per la tua registrazione!",
  "An error occured while saving your email": "Si è verificato un errore durante la registrazione.",
  "And then ? Follow us": "Cosa c'è dopo? Seguici su [facebook]https://facebook.com/recalbox), [instagram](https://instagram.com/recalbox) e [twitter](https://twitter.com/recalbox), e registrati alla nostra newsletter per ricevere notizie, consigli e guide prima tutti!",
  "Subscribe to the newsletter": "Registrati alla newsletter.",
  "Systems and blog": "Puoi controllare la [lista dei sistemi compatibili]({{systemlink}}) o visitare il [blog]({{bloglink}}).",
  "Download and install Recalbox for your Rasbperry Pi, PC, Handheld and Odroid!": "Scarica e installa Recalbox sul tuo Raspberry Pi, PC, Console Portatile o Odroid!",
  "Download and install Recalbox for your": "Scarica e installa Recalbox per {{category}}",
  "Release Notes for Recalbox": "Note di Rilascio per Recalbox {{version}}",
  "All images": "Vedi tutte le immagini",
  "All images for Recalbox": "Tutte le immagini per Recalbox {{version}}",
  "Download": "Download",
  "Next: play": "Prossimo passo: gioca"
}