{
  "Decline": "Rifiuta",
  "Accept": "Accetta",
  "This website uses cookies to enhance the user experience.": "Questo sito utilizza cookies per migliorare l'esperienza dell'utente.",
  "More info": "Più informazioni",
  "start": "Conformemente alle disposizioni degli articoli 6-III e 19 della legge n. 2004-575 del 21 giugno 2004 per la fiducia nell'economia digitale, nota come L.C.E.N., gli utenti e i visitatori del sito recalbox.com sono informati del presente avviso legale.\n\nIl sito recalbox.com è accessibile al seguente indirizzo: www.recalbox.com (di seguito denominato \"il Sito\"). L'accesso e\ne l'utilizzo del Sito sono soggetti al presente \"avviso legale\" dettagliato qui di seguito, nonché alle leggi\ne/o ai regolamenti applicabili.\n\nLa connessione, l'uso e l'accesso a questo Sito implicano l'accettazione piena e senza riserve da parte dell'utente di\ndi tutte le disposizioni del presente avviso legale.",
  "title1": "1. Protezione della Privacy",
  "content1": "Raccolta di dati sul nostro sito web\n\n\nChi è responsabile della raccolta dei dati su questo sito?\n\nIl trattamento dei dati su questo sito è effettuato dall'editore del sito. Le informazioni di contatto si trovano nella sezione \"Nota sull'entità responsabile di questo sito\".\n\nCome raccogliamo i tuoi dati?\n\nI dati che raccogliamo sono quelli che ci fornisci. Per esempio, possono essere i dati che inserisci in un modulo di contatto.\n\nAltri dati vengono raccolti automaticamente quando si visita il sito attraverso i nostri sistemi informatici. Si tratta principalmente di dati tecnici (ad esempio il browser Internet, il sistema operativo o l'ora della richiesta della pagina). La raccolta di questi dati è automatica non appena si entra nel nostro sito.\n\n\nPer cosa utilizziamo i vostri dati?\n\nAlcuni dati vengono raccolti per garantire il funzionamento ottimale del sito. Altri dati possono essere utilizzati per analizzare il comportamento degli utenti.\n\nQuali diritti hai sui tuoi dati?\n\nIn qualsiasi momento, avete il diritto di ottenere gratuitamente informazioni sull'origine, il destinatario e l'uso dei vostri dati personali memorizzati. Avete anche il diritto di richiedere la correzione, il blocco o la cancellazione di questi dati. Per questo motivo e per altre domande sulla protezione dei dati, potete contattarci in qualsiasi momento all'indirizzo indicato sulla nostra pagina di contatto. Inoltre, avete il diritto di ricorrere all'autorità di controllo competente.\n\nStrumenti di analisi e strumenti di terzi\n\nQuando visitate il nostro sito web, il vostro comportamento di navigazione può essere raccolto e analizzato sotto forma di statistiche. Questo viene fatto principalmente con i cookie e i cosiddetti programmi di analisi. L'analisi del tuo comportamento di navigazione è anonima; il comportamento di navigazione non ti permette di essere rintracciato personalmente. Potete opporvi a questa analisi o impedirla non utilizzando determinati strumenti. Informazioni dettagliate possono essere trovate nella seguente politica sulla privacy.\n\nPuoi opporti a questa analisi. Vi informeremo sulle possibilità di opposizione in questa politica sulla privacy.\n",
  "title2": "2. Informazioni generali e informazioni obbligatorie",
  "content2": "Politica sulla privacy\n\nI redattori di queste pagine prendono molto sul serio la protezione dei vostri dati personali. Trattiamo i vostri dati personali in modo confidenziale e in conformità con le norme sulla protezione dei dati e questa politica sulla privacy.\n\nSe utilizzate questo sito, verranno raccolti diversi dati personali. I dati personali sono informazioni che ti identificano personalmente. Questa politica sulla privacy spiega quali informazioni raccogliamo e per cosa le usiamo. Spiega anche come e per quale scopo questo avviene.\n\nSegnaliamo che la trasmissione di dati su Internet (per esempio nella comunicazione via e-mail) può avere delle falle di sicurezza. Una protezione completa dei dati contro l'accesso di terzi non è possibile.\n\nNota sull'entità responsabile di questo sito\n\nQuesto sito è pubblicato da RECALBOX.\n\nIndirizzo e-mail: legal@recalbox.com\ndi seguito \" l'Editore \".\n\nIl direttore editoriale è: digitalLumberjack\nIndirizzo e-mail di contatto: legal@recalbox.com\ndi seguito \"l'Editore\".\n\nQuesto sito è ospitato da Netlify\ndi seguito \"l'Host\".\n\nL'entità responsabile è la persona fisica o giuridica che, da sola o con altri, decide le finalità e i mezzi del trattamento dei dati personali (ad esempio nomi, indirizzi e-mail, ecc.).\n\nRevoca del consenso al trattamento dei dati\n\nMolte operazioni di trattamento dei dati sono possibili solo con il vostro esplicito consenso. Potete revocare un consenso esistente in qualsiasi momento. È sufficiente un messaggio informale via e-mail. La legittimità del trattamento dei dati effettuato fino alla revoca non viene pregiudicata dalla revoca.\n\nDiritto di ricorso all'autorità di controllo competente\n\nIn caso di violazione della legge sulla protezione dei dati, l'interessato ha il diritto di ricorrere all'autorità di controllo competente. Nel caso di questo sito, l'autorità di controllo competente è la CNIL, le cui informazioni sono disponibili al seguente indirizzo: https://www.cnil.fr/\n\nDiritto alla portabilità dei dati\n\nHai il diritto di recuperare i dati che ti riguardano che trattiamo sulla base del tuo consenso o nel caso di un contratto con una terza parte. Questi dati sono in un formato standard leggibile da una macchina. Se richiedete un trasferimento diretto dei dati ad un'altra persona responsabile, questo sarà fatto solo nella misura in cui è tecnicamente possibile.\n\nCrittografia SSL o TLS\n\nPer motivi di sicurezza, questo sito web utilizza la crittografia SSL o TLS per proteggere la trasmissione di contenuti riservati, come gli ordini o le richieste che ci inviate in qualità di operatori del sito. Puoi riconoscere una connessione criptata cambiando la riga dell'indirizzo del browser da \"http://\" a \"https://\" e il simbolo del lucchetto nella barra degli indirizzi del tuo browser.\n\nSe la crittografia SSL o TLS è abilitata, i dati che ci invii non possono essere letti da terzi.\n\nInformazioni, blocco, cancellazione\n\nAvete il diritto di ottenere gratuitamente informazioni sui vostri dati personali memorizzati, la loro origine e il loro destinatario e lo scopo del trattamento dei dati e, se necessario, il diritto di rettificare, bloccare o cancellare questi dati. Per ulteriori informazioni sui dati personali, potete contattarci in qualsiasi momento all'indirizzo indicato nella nostra pagina di contatto.\n\nRifiuto delle e-mail pubblicitarie\n\nL'utilizzo delle informazioni pubblicate nell'ambito dell'obbligo di contatto per l'invio di informazioni non richieste è vietato. I gestori di questo sito web si riservano espressamente il diritto di intraprendere azioni legali in caso di invio non richiesto di informazioni pubblicitarie, ad esempio tramite e-mail di spam.\n",
  "title3": "3. Raccolta dei dati nel nostro sito",
  "content3": "Cookies\n\nLa maggior parte delle nostre pagine usa i cookies. I cookies non danneggiano il tuo computer e non contengono virus. I cookie sono utilizzati per rendere la tua esperienza di navigazione più facile da usare, efficiente e sicura. I cookie sono piccoli file di testo memorizzati sul tuo computer e conservati dal tuo browser.\n\nLa maggior parte dei cookie che utilizziamo sono \"cookie di sessione\". Saranno cancellati automaticamente alla fine della vostra visita. Altri cookie rimangono memorizzati sul tuo dispositivo fino a quando non li cancelli. Questi cookie ci permettono di riconoscere il tuo browser la prossima volta che visiti questo sito.\n\nPuoi configurare il tuo browser per essere informato sull'impostazione dei cookie e per consentire i cookie solo in casi specifici, per accettare i cookie in alcuni casi o per escluderli del tutto e per attivare la cancellazione automatica dei cookie quando chiudi il browser. La disabilitazione dei cookie può limitare la funzionalità di questo sito web.\n\n\nFile di log del server\n\nIl fornitore delle pagine raccoglie e memorizza automaticamente informazioni nei file di log del server, che il tuo browser ci trasmette automaticamente. Questi sono i seguenti:\n\nTipo e versione del browser\nSistema operativo utilizzato\nURL di origine\nOra della richiesta del server\nIndirizzo IP\nQuesti dati non saranno fusi con altre fonti di dati.\n\nLa raccolta di questi dati si basa sull'articolo 6, paragrafo 1, lit. f del GDPR. Il gestore del sito web ha un interesse legittimo a presentare il suo sito web in modo ottimale e senza errori tecnici - a tal fine, i file di log del server devono essere registrati.\n\nContatto\n\nSe ci inviate richieste tramite l'e-mail legal@recalbox.com, i dettagli di queste richieste, comprese le informazioni che avete fornito nel modulo di contatto, saranno memorizzati ai fini dell'ulteriore elaborazione e in caso di ulteriori domande. Non condivideremo queste informazioni senza il suo consenso.\n\nIl trattamento dei dati di contatto si basa quindi esclusivamente sul tuo consenso (articolo 6, paragrafo 1, lit. GDPR). Puoi revocare questo consenso in qualsiasi momento. È sufficiente un messaggio informale via e-mail. La legalità del trattamento dei dati effettuato prima della revoca non è influenzata dalla revoca.\n\nI dati che avete inserito nel modulo di contatto rimangono in nostro possesso fino a quando non ne richiedete la cancellazione, revocate il vostro consenso alla loro memorizzazione o rimuovete la necessità di memorizzarli (ad esempio dopo il completamento della vostra richiesta). Le disposizioni giuridicamente vincolanti - in particolare i periodi di conservazione - rimangono inalterate.\n",
  "title4": "4. Strumenti di analisi e pubblicità",
  "content4": "Google Analytics\n\nQuesto sito web utilizza le funzioni del servizio di analisi web Google Analytics. Il fornitore è Google Inc, 1600 Amphitheater Parkway, Mountain View, CA 94043, USA.\n\nGoogle Analytics utilizza dei \"cookies\". Si tratta di file di testo che vengono memorizzati sul vostro computer e che permettono un'analisi del vostro utilizzo del sito web. Le informazioni generate dal cookie sull'utilizzo del sito web da parte dell'utente vengono trasmesse a un server di Google negli Stati Uniti e lì memorizzate.\n\nI cookie di Google Analytics vengono memorizzati sulla base dell'articolo 6, paragrafo 1, lit. f GDPR. Il gestore del sito web ha un interesse legittimo ad analizzare il comportamento degli utenti al fine di ottimizzare sia il suo sito web che la sua pubblicità.\n\nPlugin per il browser\n\nÈ possibile impedire la memorizzazione dei cookie tramite un'impostazione del browser web. Tuttavia, si prega di notare che se lo fa, potrebbe non essere in grado di utilizzare tutte le funzionalità di questo sito. Inoltre, è possibile impedire la raccolta da parte di Google dei dati generati dal cookie e relativi al vostro utilizzo del sito web (compreso il vostro indirizzo IP) e l'elaborazione di questi dati da parte di Google, scaricando il plug-in del browser disponibile al seguente link: https://tools.google.com/dlpage/gaoptout?hl=fr .\n\nOpposizione al rilevamento dei dati\n\nPotete impedire il rilevamento dei vostri dati da parte di Google Analytics cliccando sul seguente link. Verrà impostato un cookie di opt-out che impedirà la raccolta dei vostri dati in occasione di future visite a questo sito web: disattivare Google Analytics.\n\nPer ulteriori informazioni su come vengono gestiti i dati degli utenti in Google Analytics, consultare la politica sulla privacy di Google: https://support.google.com/analytics/answer/6004245.\n",
  "title5": "5. Newsletter",
  "content5": "Dati della newsletter\n\nSe desiderate ricevere la Newsletter offerta sul sito, abbiamo bisogno del vostro indirizzo e-mail e delle informazioni che ci permettono di verificare che siete il proprietario dell'indirizzo e-mail e che accettate di ricevere le nostre Newsletters. Non raccogliamo altri dati o solo su base volontaria. Utilizziamo questi dati esclusivamente per la consegna delle informazioni richieste e non li trasmettiamo a terzi.\n\nIl trattamento dei dati inseriti nel modulo di registrazione alla newsletter avviene esclusivamente sulla base del vostro consenso (articolo 6, paragrafo 1, lit. del GDPR). Il consenso dato per la memorizzazione dei dati, l'indirizzo e-mail e il loro utilizzo per l'invio della newsletter può essere revocato in qualsiasi momento, ad esempio tramite il link \"unsubscribe\" nella newsletter. La legalità delle operazioni di trattamento dei dati già effettuate non è influenzata dalla revoca.\n\nI dati che ci trasmettete per l'ottenimento della newsletter vengono memorizzati da noi fino a quando non vi cancellate dalla newsletter e vengono cancellati dopo che vi siete cancellati dalla newsletter. I dati memorizzati per altri scopi (ad es. indirizzi e-mail per l'area membri) rimangono invariati.\n",
  "title6": "6. Strumenti e plugin",
  "content6": "Google Web Fonts\n\nQuesto sito utilizza web fonts, forniti da Google, per una rappresentazione uniforme dei caratteri. Quando visualizzi una pagina, il tuo browser carica i web font necessari nella cache del tuo browser per visualizzare correttamente il testo e i font.\n\nPer fare questo, il browser che stai usando deve connettersi ai server di Google. Come risultato, Google apprende che il nostro sito web è stato visitato tramite il vostro indirizzo IP. L'uso di Google Web Fonts ha lo scopo di garantire una presentazione coerente e attraente dei nostri servizi online. Questo costituisce un interesse legittimo ai sensi dell'articolo 6(1)(f) GDPR.\n\nSe il tuo browser non supporta i web font, il tuo computer utilizzerà un font predefinito.\n\nPer ulteriori informazioni su Google Web Fonts, si prega di visitare https://developers.google.com/fonts/faq e l'informativa sulla privacy di Google: https://www.google.com/policies/privacy/.\n"
}