{
  "Decline": "Recusar",
  "Accept": "Aceitar",
  "This website uses cookies to enhance the user experience.": "Este site usa cookies para melhorar a experiência do usuário.",
  "More info": "Mais informações",
  "title1": "1. Protecção da privacidade",
  "title2": "2. Informações gerais e informações obrigatórias",
  "title3": "3. Coleta de dados no nosso site",
  "title4": "4. Ferramentas de análise e publicidade",
  "title5": "5 Boletim Informativo",
  "title6": "6. Plugins e ferramentas",
  "start": "De acordo com o disposto nos artigos 6-III e 19 da Lei nº 2004-575 de 21 de junho de 2004 de Confiança na Economia Digital, conhecida como LCEN, os usuários e visitantes do site recalbox.com são informados do presente aviso legal.\n\nO site recalbox.com pode ser acessado no seguinte endereço: www.recalbox.com (doravante denominado \"o Site\"). Acesso a e\no uso do Site estão sujeitos ao presente \"aviso legal\" detalhado abaixo, bem como às leis\ne / ou regulamentos aplicáveis.\n\nA conexão, uso e acesso a este Site implicam na aceitação plena e sem reservas por parte do usuário de internet\nde todas as disposições deste aviso legal.",
  "content1": "Coleta de dados em nosso site\n\n\nQuem é o responsável pela coleta de dados neste site?\n\nO processamento de dados neste site é realizado pelo editor do site. Os dados de contato podem ser encontrados na seção \"Nota sobre a entidade responsável por este site\".\n\nComo coletamos seus dados?\n\nOs dados que coletamos serão os dados que você nos fornecer. Por exemplo, podem ser dados que você insere em um formulário de contato.\n\nOutros dados são coletados automaticamente quando você visita o site por meio de nossos sistemas de computador. Trata-se principalmente de dados técnicos (por exemplo, navegador da Internet, sistema operacional ou hora da solicitação da página). A coleta desses dados é automática assim que você entra em nosso site.\n\n\nPara que usamos seus dados?\n\nAlguns dos dados são coletados para garantir o funcionamento ideal do site. Outros dados podem ser usados ​​para analisar o comportamento do usuário.\n\nQue direitos você tem sobre seus dados?\n\nA qualquer momento, você tem o direito de obter informações gratuitas sobre a origem, destinatário e uso de seus dados pessoais armazenados. Você também tem o direito de solicitar a correção, bloqueio ou exclusão desses dados. Por este motivo e para outras questões sobre proteção de dados, você pode nos contatar a qualquer momento no endereço fornecido em nossa página de contato. Além disso, você tem o direito de apelar para a autoridade de supervisão competente.\n\nFerramentas de análise e ferramentas de terceiros\n\nQuando você visita nosso site, seu comportamento de navegação pode ser coletado e analisado na forma de estatísticas. Isso é feito principalmente com cookies e os chamados programas de análise. A análise do seu comportamento de navegação é anônima; o comportamento de navegação não permite que você seja rastreado pessoalmente. Você pode se opor a esta análise ou evitá-la ao não usar certas ferramentas. Informações detalhadas podem ser encontradas na política de privacidade a seguir.\n\nVocê pode se opor a esta análise. Iremos informá-lo sobre as possibilidades de objeção a esta política de privacidade.",
  "content2": "Política de Privacidade\n\nOs editores destas páginas levam muito a sério a proteção dos seus dados pessoais. Tratamos seus dados pessoais de forma confidencial e de acordo com os regulamentos de proteção de dados e esta política de privacidade.\n\nSe você usar este site, vários dados pessoais serão coletados. Informações pessoais são informações que identificam você pessoalmente. Esta política de privacidade explica quais informações coletamos e para que as usamos. Também explica como e com que propósito isso acontece.\n\nRessaltamos que a transmissão de dados pela Internet (por exemplo, na comunicação por e-mail) pode apresentar falhas de segurança. A proteção completa dos dados contra o acesso de terceiros não é possível.\n\nNota sobre a entidade responsável por este site\n\nEste site é publicado por RECALBOX.\n\nEndereço de e-mail: legal@recalbox.com\ndoravante \"o Editor\".\n\nO Diretor de Publicação é: digitalLumberjack\nEndereço de e-mail para contato: legal@recalbox.com\ndoravante denominado \"o Editor\".\n\nEste site é hospedado por Netlify\ndoravante denominado \"o Host\".\n\nA entidade responsável é a pessoa singular ou coletiva que, sozinha ou em conjunto, decide sobre os fins e meios de tratamento dos dados pessoais (por exemplo, nomes, endereços de e-mail, etc.).\n\nRevogação do seu consentimento para processamento de dados\n\nMuitas operações de processamento de dados só são possíveis com o seu consentimento expresso. Você pode revogar um consentimento existente a qualquer momento. Uma mensagem informal por e-mail é suficiente. A legalidade do processamento de dados realizado até a revogação não é afetada pela revogação.\n\nDireito de recurso para a autoridade supervisora ​​competente\n\nEm caso de violação da lei de proteção de dados, o titular dos dados tem o direito de apelar para a autoridade de supervisão competente. No caso deste site, a autoridade de fiscalização competente é a CNIL, cujas informações se encontram no seguinte endereço: https://www.cnil.fr/\n\nDireito à portabilidade de dados\n\nVocê tem o direito de recuperar os dados relativos a você que processamos com base no seu consentimento ou no caso de um contrato com terceiros. Esses dados estão em um formato padrão legível por máquina. Se você precisar de uma transferência direta dos dados para outra pessoa responsável, isso só será feito na medida em que seja tecnicamente possível.\n\nCriptografia SSL ou TLS\n\nPor razões de segurança, este site usa criptografia SSL ou TLS para proteger a transmissão de conteúdo confidencial, como pedidos ou solicitações que você nos envia como operador do site. Você pode reconhecer uma conexão criptografada alterando a linha de endereço do navegador de \"http://\" para \"https://\" e o símbolo de cadeado na barra de endereço do navegador.\n\nSe a criptografia SSL ou TLS estiver ativada, os dados que você nos envia não podem ser lidos por terceiros.\n\nInformação, bloqueio, exclusão\n\nVocê tem o direito de obter informações gratuitas sobre seus dados pessoais armazenados, sua origem e destinatário e a finalidade do processamento de dados e, se necessário, o direito de retificar, bloquear ou excluir esses dados. Para mais informações sobre dados pessoais, você pode nos contatar a qualquer momento no endereço indicado em nossa página de contato.\n\nRecusa de e-mails publicitários\n\nÉ proibida a utilização da informação publicada no âmbito da obrigação de contato para o envio de informação não solicitada. Os operadores deste site se reservam expressamente o direito de tomar medidas legais em caso de envio não solicitado de informações publicitárias, por ex. via e-mails de spam.",
  "content3": "Cookies\n\nA maioria de nossas páginas usam cookies. Os cookies não prejudicam o seu computador e não contêm vírus. Os cookies são usados ​​para tornar sua experiência de navegação mais amigável, eficiente e segura. Cookies são pequenos arquivos de texto armazenados em seu computador e armazenados por seu navegador.\n\nA maioria dos cookies que usamos são \"cookies de sessão\". Eles serão excluídos automaticamente no final da sua visita. Outros cookies permanecem armazenados em seu dispositivo até que você os exclua. Esses cookies nos permitem reconhecer seu navegador na próxima vez que você visitar este site.\n\nVocê pode configurar seu navegador para ser informado sobre a configuração de cookies e permitir cookies apenas em casos específicos, para aceitar cookies em certos casos ou para excluí-los completamente e para ativar a exclusão automática de cookies quando você fecha seu navegador. Desativar os cookies pode limitar a funcionalidade deste site.\n\n\nArquivos de log do servidor\n\nO provedor das páginas coleta e armazena automaticamente informações em arquivos de log do servidor, que seu navegador transmite automaticamente para nós. Estes são os seguintes:\n\nTipo e versão do navegador\nSistema operacional usado\nURL de origem\nHora do pedido do servidor\nendereço de IP\nEsses dados não serão mesclados com outras fontes de dados.\n\nA coleta desses dados é baseada no Artigo 6, parágrafo 1, lit. f do GDPR. O operador do site tem um interesse legítimo em apresentar o seu site da maneira ideal e sem erros técnicos - para isso, os arquivos de log do servidor devem ser registrados.\n\nContato\n\nSe você nos enviar perguntas através do e-mail legal@recalbox.com, os detalhes dessas perguntas, incluindo as informações que você forneceu no formulário de contato, serão armazenados para fins de processamento posterior e no caso de novas perguntas. Não compartilharemos essas informações sem o seu consentimento.\n\nO tratamento dos dados de contato é, portanto, exclusivamente baseado no seu consentimento (Artigo 6, parágrafo 1, lit. RGPD). Você pode revogar este consentimento a qualquer momento. Uma mensagem informal por e-mail é suficiente. A legalidade do processamento de dados executado antes da revogação não é afetada pela revogação.\n\nOs dados que você inseriu no formulário de contato permanecem em nossa posse até que você solicite sua exclusão, revogue seu consentimento para seu armazenamento ou elimine a necessidade de armazená-los (por exemplo, após a conclusão de sua solicitação). As disposições juridicamente vinculativas - em particular os períodos de retenção - permanecem inalteradas.",
  "content4": "Google Analytics\n\nEste site utiliza as funções do serviço de análise web Google Analytics. O provedor é Google Inc, 1600 Amphitheatre Parkway, Mountain View, CA 94043, EUA.\n\nO Google Analytics usa \"cookies\". São arquivos de texto que ficam armazenados no seu computador e que permitem uma análise do uso que você faz do site. A informação gerada pelo cookie sobre a sua utilização deste website é transferida para um servidor Google nos EUA e aí armazenada.\n\nOs cookies do Google Analytics são armazenados com base no Artigo 6, parágrafo 1, lit. f GDPR. O operador do site tem um interesse legítimo em analisar o comportamento do usuário a fim de otimizar seu site e sua publicidade.\n\nPlugin do navegador\n\nVocê pode impedir o armazenamento de cookies por meio de uma configuração em seu navegador da web. No entanto, observe que se você fizer isso, poderá não conseguir usar todos os recursos deste site. Além disso, você pode impedir a coleta pelo Google de dados gerados pelo cookie e relacionados ao seu uso do site (incluindo o seu endereço IP) e o processamento desses dados pelo Google baixando o plug-in do navegador disponível através do seguinte link : https://tools.google.com/dlpage/gaoptout?hl=fr.\n\nOposição à coleta de dados\n\nVocê pode impedir a coleta de seus dados pelo Google Analytics clicando no link a seguir. Um cookie de exclusão será definido para impedir a coleta de seus dados em futuras visitas a este site: desative o Google Analytics.\n\nPara obter mais informações sobre como os dados do usuário são gerenciados no Google Analytics, consulte a política de privacidade do Google: https://support.google.com/analytics/answer/6004245.",
  "content5": "Dados do boletim informativo\n\nSe deseja receber o boletim informativo disponibilizado no site, necessitamos do seu endereço de e-mail e de informações que nos permitam verificar que é o proprietário do endereço de e-mail e que concorda em receber nossos Boletins informativos. Não recolhemos quaisquer outros dados ou apenas de forma voluntária. Utilizamos estes dados exclusivamente para o envio das informações solicitadas e não os repassamos a terceiros.\n\nO tratamento dos dados introduzidos no formulário de registo do boletim informativo é efetuado exclusivamente com base no seu consentimento (art. 6º, n.º 1, lit. do RGPD). O consentimento dado para o armazenamento dos dados, do endereço de e-mail e da sua utilização para o envio do boletim informativo pode ser revogado a qualquer momento, por exemplo através do link \"cancelar\" do boletim informativo. A legalidade das operações de processamento de dados já realizadas não é afetada pela revogação.\n\nOs dados que você nos transmite para fins de obtenção do boletim informativo serão armazenados por nós até que você cancele a assinatura do boletim informativo e serão excluídos após cancelar a assinatura do boletim informativo. Os dados armazenados para outros fins (por exemplo, endereços de e-mail para a área de membros) permanecem inalterados.",
  "content6": "Fontes da web do Google\n\nEste site usa fontes da web, fornecidas pelo Google, para representação uniforme das fontes. Quando você visualiza uma página, o navegador carrega as fontes da web necessárias no cache do navegador para exibir o texto e as fontes corretamente.\n\nPara fazer isso, o navegador que você está usando deve se conectar aos servidores do Google. Como resultado, o Google fica sabendo que nosso site foi acessado por meio de seu endereço IP. O uso do Google Web Fonts tem como objetivo garantir a apresentação consistente e atraente de nossos serviços online. Este constitui um interesse legítimo no significado do artigo 6.º, n.º 1, alínea f), do RGPD.\n\nSe o seu navegador não suportar fontes da web, uma fonte padrão será usada pelo seu computador.\n\nPara obter mais informações sobre o Google Web Fonts, visite https://developers.google.com/fonts/faq e a política de privacidade do Google: https://www.google.com/policies/privacy/."
}