{
  "We are soon on Kickstarter! Let us your email.": "O projeto estará **disponível muito em breve no Kickstarter**! Seja o primeiro a receber o seu **Recalbox RGB Dual** se inscrevendo na newsletter!",
  "Tell me when it's on kickstarter!": "Avisem-me quando estiver disponível!",
  "Soon on Kickstarter": "Em breve, no Kickstarter.",
  "Now on Kickstarter": "Agora no Kickstarter",
  "days to go": "dias para ir",
  "Bring your CRT screens and TV back to life and play all your childhood games with RECALBOX RGB Dual!": "Traga suas telas CRT e televisores de volta à vida e jogue todos os seus jogos de infância com RECALBOX RGB Dual!",
  "Back this project on Kickstarter": "Apoiar este projeto no Kickstarter",
  "Story": "História",
  "Recalbox Description": "Nós somos o Recalbox, uma solução gratuita que transforma o seu nano computador **Raspberry Pi**  em um console retrogaming que suporta mais de 120 consoles e computossauros (também conhecidos como computadores antigos), e milhares de jogos arcade.\nComo retrogamer, você sabe como é transcendente sentir a nostalgia que se apodera de nós quando jogamos novamente todos os jogos que abalaram a nossa infância.\n\nJogar com um controle de PS4 ou 8Bitdo na sala de estar em uma TV OLED já nos permite redescobrir e partilhar o prazer do jogo retrô, mas alguns de nós têm uma sede insaciável que nos obriga a ir cada vez mais longe na busca da **experiência mais próxima possível do original**.\n\nNesta busca interminável, **a exibição do jogo** é provavelmente o ponto mais importante.\n\nE o que poderia estar mais próximo da experiência original do que jogar nas suas antigas **TVs CRT** (você sabe, com um plugue  SCART)?\n",
  "1 - Objective": "1 - O objetivo",
  "1 - Objective details": "O projeto **Recalbox RGB Dual** visa permitir que todos possam jogar os seus jogos preferidos nas televisões CRT... **SEM QUALQUER CONFIGURAÇÃO!**\n\nMuitos de vocês ainda têm uma TV CRT no sótão, e se não tiverem, os CRTs podem ser encontrados muito facilmente, a um preço muito acessível, ou mesmo de graça (vasculhando as garagens dos seus parentes...).\n\nO nosso objetivo é chegar o mais perto possível da imagem original e da experiência de jogo nas suas consolas e jogos arcade. Vamos fazer isso de forma prática e simples, **o resultado excede todas as nossas expectativas**...\n",
  "2 - What is Recalbox RGB Dual?": "2 - Recalbox RGB Dual, o que é isso?",
  "It's a hat": "Recalbox RGB Dual é uma pequena placa (chamada H.A.T.) que se fixa no seu **Raspberry Pi 4, 400 ou 3** para adicionar uma saída  **Scart** e uma saída **saída VGA**.\nSe já tem uma case, oferecemos extensões opcionais que lhe permitem utilizar o Recalbox RGB Dual sem o encaixar no Raspberry Pi.",
  "2 - What is Recalbox RGB Dual details": "Estas duas novas saídas Scart e VGA te permitem ligar o seu Raspberry Pi a qualquer televisão ou tela CRT.\nIsto eleva o número de saídas de vídeo do seu Raspberry Pi para 4 (**SCART, VGA**, HDMI, e vídeo composto)\nDeste plugue SCART e VGA vem um sinal **RGB**, considerado o sinal analógico mais limpo, compatível com todas as telas **CRT** e **VGA**.\n\nO **Pixel perfeito** está agora ao alcance...\nTer o hardware necessário para jogar em um CRT é crucial, mas no Recalbox o valor mais importante é a simplicidade.\nÉ por isso que a versão Recalbox **8.0** foi 100% optimizada para suportar o Recalbox RGB Dual nativamente, **sem qualquer configuração necessária!**\nÉ muito simples: basta encaixar o **Recalbox RGB Dual** no seu Raspberry PI, conectar o seu plugue scart, e jogar!",
  "Features": "Recursos",
  "Feature config chip title": "**- Chip de configuração***",
  "Feature config chip description": "O chip de configuração (eeprom) permite ao seu Recalbox detectar se um Recalbox RGB Dual está ligado e **configurar automaticamente o sistema**. Isto é 100% Plug and Play (encaixar e jogar).",
  "Feature pixel factory title": "**- A Fábrica Pixel**",
  "Feature pixel factory description": "Utilizamos a técnica mais eficiente de processamento de sinais de vídeo para produzir uma imagem nítida e compatível com todos os aparelhos de televisão.",
  "Feature boom box title": "**- O Boom Box**",
  "Feature boom box description": "Ambos os canais de áudio são filtrados para suavizar o sinal sonoro e garantir a melhor qualidade de som possível. Os conhecedores reconhecerão os filtros de um amplificador de classe D.",
  "Feature power up title": "**- Power up**",
  "Feature power up description": "O sinal de 12V produzido pelo \"Power up\" **seleciona automaticamente o canal correto na TV** quando você ligar o Recalbox.",
  "Feature automatic timing selection title": "**- Seleção automática do modo de exibição original**",
  "Feature automatic timing selection description": "A base de dados incorporada no Recalbox 8.0 contém toda a informação para que para cada jogo lançado, você possa desfrutar automaticamente do seu modo de exibição original.\nPara cada console e para cada jogo:\n- A resolução é 100% idêntica à resolução original.\n- A taxa de atualização da imagem é 100% idêntica à taxa de atualização original.",
  "Feature configuration screen title": "**- Tela de configuração***",
  "Feature configuration screen description": "Adicionamos um menu de configuração que lhe permite escolher opções como o modo de exibição do menu, ou ajustar a geometria da sua tela.",
  "Feature mode 50Hz title": "**- Modo 50Hz**",
  "Feature mode 50Hz description": "Para alguns CRTs que não são compatíveis com NTSC (60Hz), é possível forçar o modo PAL (50Hz) para todos os jogos.",
  "Feature 240p theme title": "**- Tema 240p**",
  "Feature 240p theme description": "O tema Recalbox foi otimizado para telas CRT (240p e 480i). Ele otimiza o espaço e permite uma leitura mais agradável dos textos, mesmo em resoluções tão pequenas.",
  "Feature power users title": "**- Sobrecargas para usuários avançados**",
  "Feature power users description": "Recalbox RGB Dual é totalmente Plug and Play, mas os usuários avançados podem fazer sobrecargas os modos de exibição para cada jogo ou console.\n",
  "Feature 240p test suite title": "**- Suíte de teste 240p**",
  "Feature 240p test suite description": "E se você é do tipo exigente... Nós integramos o sistema de **Suíte de teste 240p** no Recalbox 8.0.\nIsto te permite calibrar sua tela para o pixel mais próximo para cada console!\n\nOutro exemplo?",
  "3 - The case": "3 - A Case",
  "3 - The case part1": "Desenvolvemos uma case que lhe permite proteger o seu Raspberry Pi 4 e o Recalbox RGB Dual.\nDisponível em quantidades limitadas, será impresso em 3D!",
  "3 - The case part2": "No final da campanha, publicaremos as fontes 3D que permitirão que você mesmo imprima a case ou mande imprimir ela em um fablab!",
  "4 - Development": "4 - Desenvolvimento",
  "4 - Development part1": "O primeiro protótipo, soldado à mão, nos permitiu validar a dupla saída Scart + VGA e a viabilidade do projeto.\nParecia assim:",
  "4 - Development part2": "Desde então, percorremos um longo caminho.  4 modelos de protótipo, centenas de horas de pesquisa e desenvolvimento, e aqui estamos: uma experiência de configuração zero, sinais o mais próximos possível dos originais, e uma imagem que NÃO perde em NADA para os consoles originais...\n\nEste é o \"laboratório\" onde nós verificamos e ajustamos:\n- frequências para cada console\n- clareza dos sinais\n- qualidade de cada protótipo",
  "5 - The RGB signal, 240p, 15KHz and all the rest title": "5 - O sinal RGB, 240p, 15KHz e todo o resto",
  "5 - The RGB signal, 240p, 15KHz and all the rest part1": "**Recalbox RGB Dual** tira o seu nome do tipo de sinal gerado e enviado para a sua TV. Este sinal chama-se **R.G.B.** (R [Red]=Vermelho, G[Green]=Verde, B[Blue]= Azul). Na época, este sinal era considerado **o melhor sinal analógico**, e continua sendo até hoje!\nLembre-se, quando você comprou um Playstation, ele veio com o cabo coaxial composto amarelo, vermelho e branco.\nEste cabo estava longe de honrar os gráficos do console... É por isso que havia cabos RGB (Scart) que eram vendidos a um preço elevado e que você definitivamente tinha que comprar para poder desfrutar de uma imagem de qualidade.\n",
  "5 - The RGB signal, 240p, 15KHz and all the rest part2": "Este é o mesmo sinal RGB que é gerado pelo Recalbox RGB Dual!\n\nQuando se trata de telas CRT, dois termos muitas vezes se destacam:\n- **240p**, que significa \"uma visualização de 240 linhas ativas na tela em modo progressivo\". Este é o modo de exibição mais comumente utilizado. Existem dezenas de outros modos compatíveis com TVs, como 224p, por exemplo. É frequentemente notado com sua taxa de atualização: 240@60p representa o modo 240p a 60 Hz\n- O **15Khz**, que representa a taxa de atualização horizontal, corresponde ao número de linhas horizontais traçadas por segundo.  Para calcular esta frequência para 240@60p, basta multiplicar o número de linhas a visualizar (240 + as linhas que não mencionamos...) pela frequência de visualização (60Hz)\n- O **31Khz** é o dobro dos 15KHz 😀.  A resolução dos jogos é de 640x480 pixels com uma exibição progressiva, a 60 quadros por segundo. Este modo só está disponível para alguns consoles, jogos arcade e PC.",
  "6 - Preparing for the future": "6 - Preparando-se para o futuro",
  "6 - Preparing for the future description": "Recalbox RGB Dual tem uma porta **VGA**, que nos permite mostrar jogos compatíveis com 480p (640x480p), como Dreamcast, Naomi, Atomiswave, ou alguns jogos para PC.\nEste suporte ao modo **31KHz** está em desenvolvimento no Recalbox, no entanto o Recalbox RGB Dual já está pronto para receber esta futura atualização.\n",
  "7 - Rewards": "7 - Recompensas",
  "7 - Rewards part1": "Qualquer que seja o seu orçamento, todos os nossos Recalbox RGB Duals têm as mesmas características e produzem a mesma qualidade de imagem.\nOferecemos edições muito limitadas para os utilizadores que desejem apoiar ainda mais o projeto.",
  "7 - Rewards green": "**Recalbox RGB Dual Kickstarter Edition Early Adopters (Verde)**",
  "7 - Rewards green desc": "Obrigado! Oferta de lançamento, só está disponível durante a campanha Kickstarter.",
  "7 - Rewards white": "**Recalbox RGB Dual Kickstarter Limited Edition (Branco)**",
  "7 - Rewards white desc": "Obrigado! Obtenha um Recalbox RGB Dual Kickstarter Limited Edition (Branco). Produzido apenas para a campanha Kickstarter.",
  "7 - Rewards white + case": "**Recalbox RGB Dual Kickstarter Limited Edition (Branco) + Case RGB Raspberry Pi 4 (impresso em 3D)**",
  "7 - Rewards white + case desc": "Obrigado! Obtenha um Recalbox RGB Dual Kickstarter Limited Edition (Branco) e a Case RGB Impressa em 3D!",
  "7 - Rewards blue": "**Recalbox RGB Dual Prototype Edition (Azul)**",
  "7 - Rewards blue desc": "Obrigado! Obtenha um Recalbox RGB Dual Prototype Edition (Azul) (100% operacional) numa edição ultra limitada de 20 itens, E um Recalbox RGB Dual Kickstarter Edition (Branco)",
  "7 - Rewards investor": "**Recalbox RGB Dual UNIQUE Edition (Preto)**",
  "7 - Rewards investor desc": "Uou! OBRIGADO!\n- Receba o Recalbox RGB Dual Unique Edition (Preto) rotulada 1/1 com as nossas saudações na placa!\n- Obtenha seu apelido em todos os Recalbox RGB Dual Kickstarter Limited Edition !\n- Receba uma carta de apreço assinada por digitalLumberjack e bkg2k\n- Mais um pacote completo Recalbox RGB Dual (1x Recalbox RGB Dual Prototype Edition (Azul) , 1x Recalbox RGB Dual Kickstarter Edition (Branco), 1x Case RGB, 3 cabos Scart, 3 cabos VGA)",
  "F.A.Q.": "F.A.Q.",
  "F.A.Q. list": "- **O que preciso para desfrutar do meu Recalbox RGB Dual?**\nUm kit completo Raspberry Pi (Rpi4, Rpi3 ou RPi 400) com fonte de alimentação, cartão SD e controle, Recalbox instalado no cartão SD, e uma TV CRT 😀\n- **Posso ligar ambas as saídas SCART e VGA ao mesmo tempo?**\nNão, isto não é possível, a limitação de corrente não lhe permite enviar o sinal para mais do que um dispositivo. Além disso, o sinal gerado só é compatível com uma tela ou outra.\n- **É compatível com todas as telas CRT?**\nSim, a \"Fábrica de Pixel\" gera um sinal de sincronização muito limpo para garantir a compatibilidade com o número máximo de CRTs.\n- **O meu Recalbox já está em uma case, o que posso fazer?**\nComo opção, pode adicionar uma extensão GPIO ao seu pedido para manter o Recalbox RGB Dual para fora da sua case.\n- **São compatíveis todos os consoles e computadores disponíveis no Recalbox?**\nA maioria já é compatível (todos os jogos arcade e mais de 70 sistemas), e futuras atualizações irão adicionar mais.\n- **O Recalbox RGB Dual é compatível com outras distribuições?**\nDeixamos a cargo de outras distribuições retrogaming tornar os seus sistemas compatíveis com o Recalbox RGB Dual.\n- **E que tal jogos verticais?**\nOs jogos verticais são suportados nas suas televisões CRT.\n- **E as telas verticais?**\nA compatibilidade com telas verticais será implementada numa futura versão do Recalbox, mas não se preocupe, o Recalbox RGB Dual já está pronto para suportar esta atualização.\n- **Quais Raspberry Pi's são compatíveis?**\nOs Raspberry Pi 4 e Pi3 são compatíveis. O Raspberry Pi 400 requer uma extensão GPIO (disponível como opção ao fazer a encomenda)\n- **Quão grande é o Recalbox RGB Dual?**\n56mmx65mm, ele se encaixa perfeitamente no seu Raspberry Pi\n- **De que cabos preciso?**\nUm cabo SCART que está disponível como opção quando você faz o pedido.\nUm cabo de extensão GPIO se já tiver uma case para o seu Raspberry Pi.\n- **Existe uma fonte de alimentação para adicionar ao pedido?**\nNão.\n- **Fica assim ao ar livre?**\nSe você é um Criador, nós distribuímos gratuitamente arquivos STL para imprimir sua case em 3d na sua impressora ou em um FabLab perto de você !\n",
  "Credits": "Créditos",
  "Credits details": "Todas as fotos dos jogos no CRT foram tiradas por @CRTPixel e agradecemos-lhes calorosamente por nos dar permissão para usá-las na nossa campanha!\nObrigado à comunidade Recalbox por nos ajudar neste projeto, e especialmente a eles:\n@toniosj @Atomik @CommanderOcto @emandhal @PierreC0905 @Pit64 @cpasjuste e todos os outros.",
  "Recalbox RGB Dual prototype footage": "Imagens do protótipo Recalbox RGB Dual",
  "They talk about us!": "Eles falam de nós!",
  "They like us!": "Eles gostam de nós!",
  "Want to know when Recalbox RGB Dual will be available? Let us your email.": "Quer saber quando é que o Recalbox RGB Dual estará disponível? Deixe-nos o seu e-mail.",
  "Tell me when it's back!": "Diga-me quando voltar!",
  "Thank you! You will be the first to know when the Recalbox RGB Dual is back in stock!": "Obrigado! Você será o primeiro a saber quando o Recalbox RGB Dual estiver de volta ao estoque!",
  "Thank you for your support! The kickstarter campaign is a success!": "Obrigado pelo seu apoio! A campanha kickstarter é um sucesso!"
}