{
  "The all in one retrogaming console!": "LA console rétrogaming\n\n **tout en un** !",
  "Play again to all your consoles!": "(Re)jouez facilement à **toutes les consoles**, bornes d'arcade et ordinateurs de votre enfance.",
  "We help you in four steps": "Nous vous accompagnons pour créer votre Recalbox, ***en 4 étapes***.",
  "Go to step 1": "Aller à l'étape 1",
  "I already have hardware": "Je suis déjà équipé.",
  "I want it!": "J'en veux une !",
  "Download and install last version": "Téléchargez et installez la dernière version de Recalbox sur votre matériel !",
  "Download": "Télécharger",
  "The powerful retro console": "La console rétro survitaminée",
  "Recalbox Features": "Sauvegarde instantanée, rembobinage, scraping, overlays, shaders, clavier virtuel, recherche multi-systèmes,\n          il serait trop long de lister tout ce qui fait de Recalbox la solution ultime en rétrogaming. Découvrez-le par vous-même en essayant Recalbox !",
  "Where to begin?": "Où commencer avec Recalbox ?",
  "1 - Create your Recalbox": "1 - Créer sa Recalbox",
  "You should start with the first step": "Nous vous conseillons de commencer par la section **Créer sa Recalbox** qui vous permettra, en 4 étapes, de vous procurer le matériel nécessaire, d'assembler et de lancer votre première partie sur Recalbox.",
  "2 - Tutorials": "2 - Tutoriels",
  "Then the tutorials": "Une fois votre Recalbox fonctionnelle, la section Tutoriels vous permettra de découvrir les menus, options, configurations de votre Recalbox et de maitriser votre console à la perfection.",
  "3 - Documentation": "3 - Documentation",
  "Finally documentation": "Pour aller encore plus loin, vous pouvez vous rendre sur la documentation officielle Recalbox écrite par la communautée.\nEt si vous voulez participer, n'hésitez pas à proposer du contenu !",
  "More than 100 compatible systems": "Plus de 100 systèmes compatibles",
  "More than 100 compatible systems details": "Des consoles de salon, aux consoles portables, en passant par les ordinateurs, retrouvez également les jeux de milliers de bornes d'arcade.",
  "What do you want to play?": "Et vous, à quelle console allez vous (re)jouer ?",
  "I want to play to...": "Je veux jouer à la...",
  "It has never been so simple": "La simplicité avant tout",
  "Simple and accessible": "Simple et accessible, nous mettons tout en oeuvre pour vous proposer la **meilleure expérience retrogaming** qui soit !\n\nLe système est pensé pour être simple d'utilisation, même **pour les débutants**. De plus, nous vous accompagnons depuis l'achat du matériel jusqu'à votre première partie sur Recalbox.\nC'est parti ?",
  "Recalbox 8 available": "**Recalbox 8** et **Recalbox RGB Dual** sont disponibles !",
  "Read more...": "En savoir plus...",
  "All the systems": "Tous les systèmes",
  "Recalbox 8.0 BETA is available!": "Recalbox 8.0 BETA est disponible!",
  "Recalbox 8.1 is available": "Recalbox 8.1 est disponible !"
}
