{
  "Recalbox needs you !": "Recalbox a besoin de vous !",
  "Support the Recalbox project on Patreon, and decide on the features of tomorrow!": "Soutenez le projet Recalbox sur Patreon, et décidez des fonctionnalités de demain !",
  "Recalbox needs you! Support the project on Patreon and enjoy premium features!": "Recalbox a besoin de vous ! Soutenez le projet sur Patreon et profitez de fonctionnalités premium !",
  "Become the patron of Recalbox..." : "Devenez le patron de Recalbox...",
  "...and enjoy all these advantages!": "...et profitez de tous ces avantages !",
  "Patron Features": "- Participez à l’avenir de Recalbox !\n- Fonctionnalités Premium !\n- Auto-Scrap !\n- Playlist rétrogaming exclusive !\n- Votez et décidez des fonctions de demain !\n- Accédez aux dernières versions avant tout le monde.\n- Bénéficiez de réductions exclusives chez nos partenaires",
  "Become a patron": "Devenir un patron",
  "Thank you for your support ❤️":"Merci pour votre soutien ❤️",
  "Visit Patreon": "Visiter Patreon",
  "Access your Patron area": "Accédez à votre espace Patron",
  "Already supporting Recalbox on Patreon?": "Vous soutenez déjà Recalbox sur Patreon ?",
  "on your patron area": "- Générez votre **clé privée**, qui vous permettra d'accéder à toutes les fonctionnalités sur votre Recalbox.\n- Téléchargez Recalbox **Patron Edition**.\n- Accédez à vos **avantages** (réductions...)",
  "Patron area": "Espace patron",
  "Log in to the Patron's area": "Se connecter à l'espace patron",
  "Recalbox is looking for... **their new patrons** !": "Recalbox recherche... **ses nouveaux patrons** !",
  "part1-1": "Afin de permettre à l’équipe de consacrer 100% de leur temps à accélérer le développement du projet, Recalbox propose aujourd’hui une campagne de soutien participatif, via la plateforme PATREON.\nUne solution qui va permettre aux utilisateurs de Recalbox de devenir tout simplement… **nos patrons** !",
  "part1-2": "Devenir un “Patron” Recalbox, c’est soutenir et participer à la vie du projet, décider du futur de Recalbox, prendre part aux décisions clé et même déterminer avec l’équipe les prochaines fonctionnalités phares des nouvelles versions.\nBref, devenir un “Patron”, c’est faire de Recalbox **VOTRE projet**.",
  "part1-3": "Devenir Patron, c’est aussi profiter en avant-première du fruit de ce travail au travers de nouvelles fonctionnalités avant-gardistes agrémentées de nombreux avantages exclusifs. Et bien entendu, toutes les fonctionnalités que les Patrons auront choisies et qu’ils auront découvertes en avant première ont pour finalité d’être accessibles pour tous les utilisateurs Recalbox dans les versions suivantes.\n\nUn projet porté PAR sa communauté. POUR sa communauté. Du win-win !",
  "just for games short": "Jeux vidéo indé, accessoires rétrogaming…",
  "just for games long": "JUST FOR GAMES, DES CONVICTIONS PARTAGÉES AVEC SES CLIENTS\n\nDepuis 2011, Just For Games est devenu un acteur incontournable de l'édition et la distribution de jeux vidéo en France et en Europe. \n\nUne équipe à taille humaine, proche de la communauté gaming, sélectionne des produits avec passion et conviction et reste à l'affût d'éditions physiques des meilleurs jeux développé par les meilleurs studios du monde. Un goût du risque et un \"French flair\" assumés pour dénicher en exclusivité des pépites \"indies\", \"néo-rétro\", d'obscurs RPG ou même des \"import\" coup de coeur, des jeux parfois très éloignés des jeux \"mainstream\" des éditeurs grand public, mais qui font maintenant partie intégrante de la scène créatrice et d'un média élevé au rang d'art. \n\nUne stratégie éditoriale souvent audacieuse et toujours indépendante qui fait partie de nos atouts majeurs et de notre ADN, tout en veillant à conserver un large choix de gammes et de styles qui satisferont le plus grand nombre.",
  "Patron exclusivity #1 : **AUTO SCRAP**!": "Exclu patron #1 : **L'AUTO SCRAP** !",
  "part2-1": "En devenant Patron de Recalbox, vous allez pouvoir dire adieu aux interminables heures de scraping pour récupérer les infos, images et vidéo de chacun de vos jeux, en découvrant dès aujourd’hui notre première fonctionnalité premium : L’AUTO-SCRAP !\n\nAvec L'AUTO-SCRAP, ajoutez vos jeux, votre Recalbox s’occupe du reste.\n\nSans aucune action de votre part. TELLEMENT COOL !",
  "Patron exclusivity #2 : **PREMIUM RETROGAMING PLAYLIST**!": "Exclu patron #2 : **PLAYLIST RETROGAMING PREMIUM** !",
  "part3-1" : "Les patrons de Recalbox profiteront en avant première d’une playlist de musiques rétrogaming de premier choix, incluant des remix, covers, demakes, chiptunes ultra-qualitatifs reprenant les grands airs des musiques de jeux vidéo de ces 40 dernières années, créées par les producteurs rétro les plus en vogue du moment.",
  "Patron exclusivity #3 : **VOTE FOR TOMORROW'S RECALBOX**!": "Exclu patron #3 : **VOTER POUR RECALBOX DE DEMAIN** !",
  "part4-1" : "Chez Recalbox, on écoute nos Patrons ! \nIls seront au cœur de notre prochaine stratégie de développement, avec la possibilité de:\n\n- Participer aux décisions stratégiques du projet\n- Voter pour les futures fonctionnalités de Recalbox\n- Discuter en direct avec les développeurs de Recalbox, avec un canal discord dédié, support VIP et même à terme une hotline gratuite, comme à la grande époque du S.O.S. Nintendo !\n- Participer aux Apéros et événements VIP, en présence de l’équipe de Recalbox\n",
  "Patron exclusivity #4 : **EXCLUSIVE PROMOTIONS!**": "Exclu patron #4 : **DES PROMOS EXCLUSIVES !**",
  "part5-1": "Chez Recalbox, un Patron, ça se chouchoute.\n\nC’est pourquoi nous leur avons négocié les meilleurs plans rétrogaming, avec des réductions sur…\n\n- du matériel pour faire sa Recalbox\n- des jeux vidéo rétrogaming / indés / homebrew\n- des jeux vidéo néo-rétro\n- des livres rétrogaming & nostal’geek\n- des vinyls de musiques de jeux vidéo rétro\n- des bornes d’arcade\n\n… et ce n’est que le début !",
  "RECALBOX: FREE FOR ALL. **FOREVER.**": "RECALBOX : GRATUIT POUR TOUS. **POUR TOUJOURS.**",
  "part6-1": "Recalbox est et restera GRATUIT et OPEN SOURCE POUR TOUS.\nLes fonctionnalités premium pour lesquelles les patrons auront voté et profité en avant première ont pour vocation à être incluses pour tous dans les futures versions de Recalbox.\n\nAvec Patreon, Recalbox devient un projet porté PAR sa communauté. POUR sa communauté.\n\nDu win-win !",
  "Not a patron anymore": "Vous n'êtes malheureusement plus patron de Recalbox. Veuillez souscrire à un abonnement sur Patreon pour accéder à votre espace Patron.",
  "Almost a Patron": "Vous êtes a deux doigts de devenir un Patron !",
  "Almost a Patron of Recalbox": "Vous êtes à deux doigts de devenir un Patron de Recalbox !",
  "Patreon link created": "Le lien avec votre compte Patreon a bien été créé !\n\nIl vous reste simplement a nous soutenir sur notre page Patreon en sélectionnant le niveau d'abonnement qui vous correspond le mieux !",
  "Support us on Patreon": "Nous soutenir sur Patreon",
  "Visit": "Visiter",
  "My discounts": "Mes réductions",
  "Discount presentation": "Chez Recalbox, un Patron, ça se chouchoute ! \n\nC’est pourquoi nous vous avons négocié les meilleurs plans 100% rétrogaming, avec des réductions exclusives chez…",
  "Available soon!": "Bientôt disponible !",
  "You are now connected!": "Vous êtes connecté !",
  "My Patron Area": "Mon Espace Patron",
  "Private key": "Clé privée",
  "Download Recalbox Patron Edition": "Télécharger Recalbox Patron Edition",
  "Please log in again to generate a new key!": "Veuillez vous reconnecter pour générer une nouvelle clé !",
  "Regenerate a private key?": "Regénérer une clé privée ?",
  "Reconnect to generate": "Votre clé privée va être effacée. Vous serez déconnecté de l'espace patron, il vous faudra vous reconnecter pour générer une nouvelle clé.",
  "Access Recalbox premium features with your private key:": "Accédez aux fonctionnalités premium de Recalbox avec votre clé privée :",
  "Private Key copied!": "Clé privée copiée !",
  "Steps to save the private key": "Pour enregistrer votre clé privée dans Recalbox: \n* allumez votre Recalbox connectée au même réseau que votre ordinateur\n* cliquez sur le bouton **copier** ci-dessus pour copier la clé\n* cliquez sur le bouton **OUVRIR LE WEB MANAGER** ci-dessous\n* collez la clé dans la case et cliquez sur **Sauvegarder** dans cette nouvelle fenêtre",
  "Open the web manager": "Ouvrir le web manager",
  "We could not find data about your support to Recalbox.": "Nous n'avons pas pu trouver de données sur votre soutien à Recalbox.",
  "Level": "Niveau",
  "Since": "Depuis",
  "My Account":"Mes infos",
  "This Mixtape will be played automatically on your Recalbox when you navigate through the menus!": "Cette Mixtape sera jouée automatiquement sur votre Recalbox lorsque vous naviguerez dans les menus !",
  "Download Patron Edition for features" : "Avec les liens ci-dessous, téléchargez la version spéciale de Recalbox pour accéder à toutes les fonctionnalités premium en avant première !",
  "Or update your current version!": "Vous pouvez aussi mettre à jour votre Recalbox automatiquement: en ajoutant la clé privée dans votre Recalbox (version stable ou version patron), le système détectera automatiquement que vous êtes patron. Si une mise a jour est disponible, elle vous sera proposée automatiquement."

}
