{
  "Thank you for your order!": "Merci pour votre commande!",
  "Thank you for your order details": "Merci beaucoup pour votre commande!\n\nL'équipe Recalbox apprécie énormément votre soutien !\n\nVous allez recevoir un mail de confirmation de la part de Paypal dans quelques instant, et nous nous occupons de préparer votre commande au plus vite !\n\nLaissez nous vous rediriger vers la notice de Recalbox RGB Dual pour vous donner un avant gout des fonctionnalités :)\n\nPS: Vous avez débloqué un badge, jetez un œil à votre espace patron :)",
  "See the manual": "Voir la notice",
  "in stock": "en stock",
  "Out of stock...": "Rupture de stock...",
  "The ultimate CRT experience": "L'expérience ultime du CRT",
  "3D Printed Case, compatible RPi 4 and RPi 3": "Boîtier imprimé en 3D compatible RPi 4 et RPi 3",
  "GPIO Extender": "Extension GPIO",
  "Shielded Scart Cable": "Câble Péritel Blindé",
  "Scart Cable": "Câble Péritel",
  "VGA Cable": "Câble VGA",
  "You can order a maximum of 2 Recalbox RGB Dual": "Vous ne pouvez commander qu'un maximum de 2 Recalbox RGB Dual",
  "Quantity": "Quantité",
  "Back soon!": "Bientôt de retour !",
  "Shipping": "Livraison",
  "Ship to": "Expédier à",
  "Order": "Commande",
  "Items": "Articles",
  "Select a country": "Sélectionnez un pays",
  "Order was cancelled because the shipping country has changed.": "La commande a été annulée parce que le pays de livraison a changé.",
  "Add a SCART output and a VGA output to your Raspberry Pi 4, 400, 3 or Zero 2 and enter the pixel perfect experience!": "Ajoutez une sortie péritel et une sortie VGA à votre Raspberry Pi 4, 400, 3 ou Zero 2 et entrez dans l'expérience du pixel perfect !",
  "After the great success of the kickstarter, Recalbox RGB Dual is finally available!": "Après le grand succès du kickstarter, Recalbox RGB Dual est de nouveau disponible a la vente !",
  "Link to the full project description": "Lien vers la description complète du projet",
  "Technical Specs": "Recalbox RGB Dual vous permet de jouer à tous les jeux compatibles Recalbox, sur téléviseur ou moniteur CRT.\n\n\n\nEt le tout dans une expérience Plug And Play !\n\n\n\n**Spécifications techniques:**\n\n\n * Signal RGB 6 bits par canal\n\n * CSYNC pure, par porte logique\n\n * Signaux 15kHz et 31kHz disponibles sur Péritel et VGA\n\n * Filtre audio\n\n * Alimentation ventilateur 5V\n\n * Sélection du mode d'affichage par switch matériel\n\n * Compatible TV 50Hz",
  "(out of stock)": "(rupture)",
  "Patron discount": "Réduction Patron",
  "OFFICIAL Recalbox RGB Dual, compatible with Raspberry Pi 4, 3, Zero 2 and 400 (requires GPIO extension), Scart output + VGA output, supports 15kHz and 31kHz, 60Hz and 50Hz, Pixel Factory, BoomBox": "Recalbox RGB Dual OFFICIEL, compatible Raspberry Pi 4, 3, Zero 2 et 400 (nécessite l'extension GPIO), sortie Péritel + sortie VGA, supporte 15kHz et 31kHz, 60Hz et 50Hz, Pixel Factory, BoomBox",
  "Please select a shipping country.": "Veuillez sélectionner un pays de destination.",
  "Close": "",
  "The official 3D printed case for your Raspberry Pi 4 and 3 and your Recalbox RGB Dual! \n\nPrinted in matte black and with the logo in color, this case allows to protect your installation, and has been designed to optimize the circulation of hot air.": "Le boitier officiel imprimé en 3D pour votre Raspberry Pi 4 et 3 et votre Recalbox RGB Dual ! Imprimé en noir mat et avec le logo en couleur, ce boitier permet de protéger votre installation, et a été pensé pour optimiser la circulation de la chaleur et éviter la chauffe.",
  "The GPIO extension allows you to disconnect the Recalbox RGB Dual from the Rasbperry Pi. It will be useful if you have a Raspberry Pi 400, if you have a compatible box, or if you often disconnect and reconnect the Recalbox RGB Dual from your Raspberry Pi.": "L'extension GPIO permet de désolidariser le Recalbox RGB Dual du Rasbperry Pi. Elle vous sera utile si vous avez une Raspberry Pi 400, si vous avez un boitier compatible, ou si vous comptez souvent débrancher et rebrancher le Recalbox RGB Dual de votre Raspberry Pi.",
  "The shielded SCART cable, selected and validated by our team, ensures the best audio and video quality on your installation. \n\nNo more picture noise or hissing! It is **HIGHLY RECOMMENDED** to enjoy the ultimate Recalbox RGB Dual experience.": "Le câble Péritel blindé, sélectionné et validé par l'équipe, vous assure la meilleure qualité audio et vidéo sur votre installation. \n\nFini les parasites sur l'image et les sifflements ! Il est **VIVEMENT recommandé** pour profiter d'une expérience ultime de Recalbox RGB Dual.",
  "Connect your Recalbox RGB Dual to your TV.": "Raccorde votre Recalbox RGB Dual à votre téléviseur.",
  "Connect your Recalbox RGB Dual to your VGA monitor.": "Raccorde votre Recalbox RGB Dual à votre moniteur VGA.",
  "Become a patron of Recalbox and get **-10% on your order**!": "Devenez un patron de Recalbox et bénéficiez de -10% sur votre commande!",
  "Discount details": "Vous êtes un Patron de Recalbox ? Connectez vous à votre espace et bénéficiez d'une **réduction de 10% sur votre commande** !\n\nVous n’êtes pas encore Patron ? Découvrez tous les avantages à soutenir le projet en tant que patron :",
  "Discount applied": "Content de te voir {{name}} ! Ta réduction de 10% sera appliquée lors de la commande!",
  "Recalbox RGB Dual is back in stock!": "Recalbox RGB Dual est de retour en stock !",
  "Get yours now! And get a -10% discount if you are a patron!": "Commandez le votre maintenant ! Et profitez d'une réduction de 10% si vous êtes patron !",
  "Buy": "Acheter",
  "Rendezvous on Friday!": "Rendez vous vendredi 22 Juillet !",
  "Already a patron?": "Déja Patron ? \n\nConnectez vous à votre espace patron pour **commander dès aujourd'hui !**",
  "What is Patreon?": "Découvrir Patreon.",
  "Patron Area": "Espace Patron",
  "Become a patron": "Devenir patron"
}
